<?xml version="1.0" encoding="UTF-8" standalone="no"?>
<!-- Generator: Adobe Illustrator 21.0.0, SVG Export Plug-In . SVG Version: 6.00 Build 0)  -->

<svg
   xmlns:dc="http://purl.org/dc/elements/1.1/"
   xmlns:cc="http://creativecommons.org/ns#"
   xmlns:rdf="http://www.w3.org/1999/02/22-rdf-syntax-ns#"
   xmlns:svg="http://www.w3.org/2000/svg"
   xmlns="http://www.w3.org/2000/svg"
   xmlns:sodipodi="http://sodipodi.sourceforge.net/DTD/sodipodi-0.dtd"
   xmlns:inkscape="http://www.inkscape.org/namespaces/inkscape"
   version="1.1"
   id="Capa_1"
   x="0px"
   y="0px"
   viewBox="0 0 200 200"
   style="enable-background:new 0 0 200 200;"
   xml:space="preserve"
   sodipodi:docname="graduated.svg"
   inkscape:version="0.92.3 (2405546, 2018-03-11)"><metadata
   id="metadata33"><rdf:RDF><cc:Work
       rdf:about=""><dc:format>image/svg+xml</dc:format><dc:type
         rdf:resource="http://purl.org/dc/dcmitype/StillImage" /><dc:title /></cc:Work></rdf:RDF></metadata><defs
   id="defs31">
	
	
	
	
	
	
	
	
	
	
	
</defs><sodipodi:namedview
   pagecolor="#ffffff"
   bordercolor="#666666"
   borderopacity="1"
   objecttolerance="10"
   gridtolerance="10"
   guidetolerance="10"
   inkscape:pageopacity="0"
   inkscape:pageshadow="2"
   inkscape:window-width="1920"
   inkscape:window-height="1017"
   id="namedview29"
   showgrid="false"
   inkscape:zoom="4.72"
   inkscape:cx="63.021261"
   inkscape:cy="126.0174"
   inkscape:window-x="-8"
   inkscape:window-y="-8"
   inkscape:window-maximized="1"
   inkscape:current-layer="Capa_1"
   showguides="true"
   inkscape:guide-bbox="true"><sodipodi:guide
     position="10,10"
     orientation="1,0"
     id="guide823"
     inkscape:locked="true"
     inkscape:label=""
     inkscape:color="rgb(255,2,0)" /><sodipodi:guide
     position="10,10"
     orientation="0,1"
     id="guide825"
     inkscape:locked="true"
     inkscape:label=""
     inkscape:color="rgb(255,2,0)" /><sodipodi:guide
     position="10,190"
     orientation="0,1"
     id="guide827"
     inkscape:locked="true"
     inkscape:label=""
     inkscape:color="rgb(255,2,0)" /><sodipodi:guide
     position="190,10"
     orientation="1,0"
     id="guide829"
     inkscape:locked="true"
     inkscape:label=""
     inkscape:color="rgb(255,2,0)" /></sodipodi:namedview>
<style
   type="text/css"
   id="style2">
	.st0{fill:none;stroke:#000000;stroke-width:3;stroke-miterlimit:10;}
</style>

<g
   id="g842"
   transform="matrix(1.06351,0,0,1.06351,-13.451273,-20.950311)"><path
     inkscape:connector-curvature="0"
     id="path4"
     d="m 34.820067,75.762186 v 20.113562 c 0,8.351722 6.470402,17.728072 19.66405,19.693942 -2.92469,3.39842 -4.706866,7.64034 -4.706866,12.68405 v 5.00037 H 38.559363 v 16.17478 c 0,3.0919 1.67963,5.93885 4.322633,7.6736 l 0.01048,0.007 6.884774,4.41862 v 9.56943 c 0,7.90507 5.50456,13.50661 11.043235,17.15112 2.769337,1.82224 5.597998,3.21065 7.930938,4.24808 2.332943,1.0374 4.295047,1.79422 4.799433,2.0446 l 0.01572,0.007 0.01572,0.008 c 3.578064,1.708 9.39858,3.79501 16.083686,3.79501 6.685107,0 12.507378,-2.08701 16.085438,-3.79501 2.30789,-1.10168 23.80503,-7.66139 23.80503,-23.45885 v -9.56996 l 6.8743,-4.41191 -0.0629,0.0384 c 2.7871,-1.66305 4.40645,-4.63353 4.40645,-7.72542 v -16.1737 h -11.2179 v -1.42938 c 0,-4.51177 -1.03593,-9.37615 -3.75675,-13.30761 -2.72084,-3.93149 -7.34801,-6.80596 -13.56696,-6.80596 H 59.620628 c -14.769443,0 -20.329473,-8.71855 -20.329473,-15.835398 V 80.042024 h 39.027696 v -4.279838 z m 25.539337,40.228794 h 51.873326 c 4.8708,0 7.78779,1.92573 9.83814,4.88836 2.05036,2.96268 3.0145,7.08569 3.0145,10.94538 v 5.70923 h 11.21788 v 11.89494 c 0,1.58625 -0.96088,3.29513 -2.30017,4.09427 l -0.0315,0.0183 -8.88629,5.70254 v 11.85316 c 0,12.02529 -16.93095,17.52956 -21.32846,19.62872 -3.12738,1.49284 -8.396773,3.3453 -14.090924,3.3453 -5.694149,0 -10.961795,-1.85246 -14.089163,-3.3453 l 0.03145,0.015 c -1.107495,-0.54981 -2.77186,-1.14802 -4.972339,-2.12654 -2.200476,-0.9785 -4.813699,-2.26716 -7.28298,-3.89198 -4.93856,-3.24961 -9.1046,-7.61893 -9.1046,-13.62526 v -11.85315 l -8.837381,-5.67076 c -1.483417,-0.97367 -2.380505,-2.5582 -2.380505,-4.14443 v -11.89487 h 11.217888 v -9.28021 c 0,-5.40824 2.239655,-9.20243 6.111067,-12.26276 z"
     style="color:#000000;font-style:normal;font-variant:normal;font-weight:normal;font-stretch:normal;font-size:medium;line-height:normal;font-family:sans-serif;font-variant-ligatures:normal;font-variant-position:normal;font-variant-caps:normal;font-variant-numeric:normal;font-variant-alternates:normal;font-feature-settings:normal;text-indent:0;text-align:start;text-decoration:none;text-decoration-line:none;text-decoration-style:solid;text-decoration-color:#000000;letter-spacing:normal;word-spacing:normal;text-transform:none;writing-mode:lr-tb;direction:ltr;text-orientation:mixed;dominant-baseline:auto;baseline-shift:baseline;text-anchor:start;white-space:normal;shape-padding:0;clip-rule:nonzero;display:inline;overflow:visible;visibility:visible;opacity:1;isolation:auto;mix-blend-mode:normal;color-interpolation:sRGB;color-interpolation-filters:linearRGB;solid-color:#000000;solid-opacity:1;vector-effect:none;fill:#000000;fill-opacity:1;fill-rule:nonzero;stroke:none;stroke-width:5.00000048;stroke-linecap:butt;stroke-linejoin:miter;stroke-miterlimit:4;stroke-dasharray:none;stroke-dashoffset:0;stroke-opacity:1;color-rendering:auto;image-rendering:auto;shape-rendering:auto;text-rendering:auto;enable-background:accumulate" /><path
     inkscape:connector-curvature="0"
     id="path6"
     d="m 136.59316,98.355048 -3.84582,2.183382 c 0,0 0.86209,1.38995 1.73778,3.35032 0.87572,1.96036 1.68889,4.476 1.68889,6.26928 v 17.97365 h 4.47108 v -17.97365 c 0,-2.88487 -1.05458,-5.72578 -2.04867,-7.95113 -0.99406,-2.225365 -2.00326,-3.851852 -2.00326,-3.851852 z"
     style="color:#000000;font-style:normal;font-variant:normal;font-weight:normal;font-stretch:normal;font-size:medium;line-height:normal;font-family:sans-serif;font-variant-ligatures:normal;font-variant-position:normal;font-variant-caps:normal;font-variant-numeric:normal;font-variant-alternates:normal;font-feature-settings:normal;text-indent:0;text-align:start;text-decoration:none;text-decoration-line:none;text-decoration-style:solid;text-decoration-color:#000000;letter-spacing:normal;word-spacing:normal;text-transform:none;writing-mode:lr-tb;direction:ltr;text-orientation:mixed;dominant-baseline:auto;baseline-shift:baseline;text-anchor:start;white-space:normal;shape-padding:0;clip-rule:nonzero;display:inline;overflow:visible;visibility:visible;opacity:1;isolation:auto;mix-blend-mode:normal;color-interpolation:sRGB;color-interpolation-filters:linearRGB;solid-color:#000000;solid-opacity:1;vector-effect:none;fill:#000000;fill-opacity:1;fill-rule:nonzero;stroke:none;stroke-width:5.00000048;stroke-linecap:butt;stroke-linejoin:miter;stroke-miterlimit:4;stroke-dasharray:none;stroke-dashoffset:0;stroke-opacity:1;color-rendering:auto;image-rendering:auto;shape-rendering:auto;text-rendering:auto;enable-background:accumulate" /><path
     inkscape:connector-curvature="0"
     id="path8"
     d="m 39.216055,105.07239 c -1.879287,1.79416 -4.395988,5.26933 -4.395988,12.22595 v 7.1403 c 0,6.9957 4.957416,11.19704 8.886286,12.69741 l 1.6557,-3.97556 c -2.51866,-0.96184 -6.070898,-3.65277 -6.070898,-8.72185 v -7.1403 c 0,-6.09298 1.609176,-7.78993 3.082605,-9.19662 z"
     style="color:#000000;font-style:normal;font-variant:normal;font-weight:normal;font-stretch:normal;font-size:medium;line-height:normal;font-family:sans-serif;font-variant-ligatures:normal;font-variant-position:normal;font-variant-caps:normal;font-variant-numeric:normal;font-variant-alternates:normal;font-feature-settings:normal;text-indent:0;text-align:start;text-decoration:none;text-decoration-line:none;text-decoration-style:solid;text-decoration-color:#000000;letter-spacing:normal;word-spacing:normal;text-transform:none;writing-mode:lr-tb;direction:ltr;text-orientation:mixed;dominant-baseline:auto;baseline-shift:baseline;text-anchor:start;white-space:normal;shape-padding:0;clip-rule:nonzero;display:inline;overflow:visible;visibility:visible;opacity:1;isolation:auto;mix-blend-mode:normal;color-interpolation:sRGB;color-interpolation-filters:linearRGB;solid-color:#000000;solid-opacity:1;vector-effect:none;fill:#000000;fill-opacity:1;fill-rule:nonzero;stroke:none;stroke-width:5.00000048;stroke-linecap:butt;stroke-linejoin:miter;stroke-miterlimit:4;stroke-dasharray:none;stroke-dashoffset:0;stroke-opacity:1;color-rendering:auto;image-rendering:auto;shape-rendering:auto;text-rendering:auto;enable-background:accumulate" /><path
     inkscape:connector-curvature="0"
     id="line10"
     d="m 125.61281,133.75565 -7.47858,7.14198 3.15595,3.02933 7.48033,-7.14031 z"
     style="color:#000000;font-style:normal;font-variant:normal;font-weight:normal;font-stretch:normal;font-size:medium;line-height:normal;font-family:sans-serif;font-variant-ligatures:normal;font-variant-position:normal;font-variant-caps:normal;font-variant-numeric:normal;font-variant-alternates:normal;font-feature-settings:normal;text-indent:0;text-align:start;text-decoration:none;text-decoration-line:none;text-decoration-style:solid;text-decoration-color:#000000;letter-spacing:normal;word-spacing:normal;text-transform:none;writing-mode:lr-tb;direction:ltr;text-orientation:mixed;dominant-baseline:auto;baseline-shift:baseline;text-anchor:start;white-space:normal;shape-padding:0;clip-rule:nonzero;display:inline;overflow:visible;visibility:visible;opacity:1;isolation:auto;mix-blend-mode:normal;color-interpolation:sRGB;color-interpolation-filters:linearRGB;solid-color:#000000;solid-opacity:1;vector-effect:none;fill:#000000;fill-opacity:1;fill-rule:nonzero;stroke:none;stroke-width:5.00000048;stroke-linecap:butt;stroke-linejoin:miter;stroke-miterlimit:4;stroke-dasharray:none;stroke-dashoffset:0;stroke-opacity:1;color-rendering:auto;image-rendering:auto;shape-rendering:auto;text-rendering:auto;enable-background:accumulate" /><path
     inkscape:connector-curvature="0"
     id="line12"
     d="m 53.577674,133.74394 -3.129761,3.05608 7.607833,7.1403 3.129762,-3.05606 z"
     style="color:#000000;font-style:normal;font-variant:normal;font-weight:normal;font-stretch:normal;font-size:medium;line-height:normal;font-family:sans-serif;font-variant-ligatures:normal;font-variant-position:normal;font-variant-caps:normal;font-variant-numeric:normal;font-variant-alternates:normal;font-feature-settings:normal;text-indent:0;text-align:start;text-decoration:none;text-decoration-line:none;text-decoration-style:solid;text-decoration-color:#000000;letter-spacing:normal;word-spacing:normal;text-transform:none;writing-mode:lr-tb;direction:ltr;text-orientation:mixed;dominant-baseline:auto;baseline-shift:baseline;text-anchor:start;white-space:normal;shape-padding:0;clip-rule:nonzero;display:inline;overflow:visible;visibility:visible;opacity:1;isolation:auto;mix-blend-mode:normal;color-interpolation:sRGB;color-interpolation-filters:linearRGB;solid-color:#000000;solid-opacity:1;vector-effect:none;fill:#000000;fill-opacity:1;fill-rule:nonzero;stroke:none;stroke-width:5.00000048;stroke-linecap:butt;stroke-linejoin:miter;stroke-miterlimit:4;stroke-dasharray:none;stroke-dashoffset:0;stroke-opacity:1;color-rendering:auto;image-rendering:auto;shape-rendering:auto;text-rendering:auto;enable-background:accumulate" /><path
     inkscape:connector-curvature="0"
     id="circle14"
     d="m 70.84026,129.56108 c -7.400911,0 -13.455177,5.77639 -13.455177,12.85121 0,7.07483 6.054266,12.84953 13.455177,12.84953 7.400913,0 13.45343,-5.7747 13.45343,-12.84953 0,-7.07482 -6.052517,-12.85121 -13.45343,-12.85121 z m 0,4.27983 c 4.990922,0 8.982343,3.81567 8.982343,8.57138 0,4.75571 -3.991421,8.56971 -8.982343,8.56971 -4.990921,0 -8.984089,-3.814 -8.984089,-8.56971 0,-4.75571 3.993168,-8.57138 8.984089,-8.57138 z"
     style="color:#000000;font-style:normal;font-variant:normal;font-weight:normal;font-stretch:normal;font-size:medium;line-height:normal;font-family:sans-serif;font-variant-ligatures:normal;font-variant-position:normal;font-variant-caps:normal;font-variant-numeric:normal;font-variant-alternates:normal;font-feature-settings:normal;text-indent:0;text-align:start;text-decoration:none;text-decoration-line:none;text-decoration-style:solid;text-decoration-color:#000000;letter-spacing:normal;word-spacing:normal;text-transform:none;writing-mode:lr-tb;direction:ltr;text-orientation:mixed;dominant-baseline:auto;baseline-shift:baseline;text-anchor:start;white-space:normal;shape-padding:0;clip-rule:nonzero;display:inline;overflow:visible;visibility:visible;opacity:1;isolation:auto;mix-blend-mode:normal;color-interpolation:sRGB;color-interpolation-filters:linearRGB;solid-color:#000000;solid-opacity:1;vector-effect:none;fill:#000000;fill-opacity:1;fill-rule:nonzero;stroke:none;stroke-width:5.00000048;stroke-linecap:butt;stroke-linejoin:miter;stroke-miterlimit:4;stroke-dasharray:none;stroke-dashoffset:0;stroke-opacity:1;color-rendering:auto;image-rendering:auto;shape-rendering:auto;text-rendering:auto;enable-background:accumulate" /><path
     inkscape:connector-curvature="0"
     id="circle16"
     d="m 108.3642,129.56108 c -7.40091,0 -13.453424,5.77639 -13.453424,12.85121 0,7.07483 6.052514,12.84953 13.453424,12.84953 7.40091,0 13.45518,-5.7747 13.45518,-12.84953 0,-7.07482 -6.05427,-12.85121 -13.45518,-12.85121 z m 0,4.27983 c 4.99092,0 8.98408,3.81567 8.98408,8.57138 0,4.75571 -3.99316,8.56971 -8.98408,8.56971 -4.99091,0 -8.982335,-3.814 -8.982335,-8.56971 0,-4.75571 3.991425,-8.57138 8.982335,-8.57138 z"
     style="color:#000000;font-style:normal;font-variant:normal;font-weight:normal;font-stretch:normal;font-size:medium;line-height:normal;font-family:sans-serif;font-variant-ligatures:normal;font-variant-position:normal;font-variant-caps:normal;font-variant-numeric:normal;font-variant-alternates:normal;font-feature-settings:normal;text-indent:0;text-align:start;text-decoration:none;text-decoration-line:none;text-decoration-style:solid;text-decoration-color:#000000;letter-spacing:normal;word-spacing:normal;text-transform:none;writing-mode:lr-tb;direction:ltr;text-orientation:mixed;dominant-baseline:auto;baseline-shift:baseline;text-anchor:start;white-space:normal;shape-padding:0;clip-rule:nonzero;display:inline;overflow:visible;visibility:visible;opacity:1;isolation:auto;mix-blend-mode:normal;color-interpolation:sRGB;color-interpolation-filters:linearRGB;solid-color:#000000;solid-opacity:1;vector-effect:none;fill:#000000;fill-opacity:1;fill-rule:nonzero;stroke:none;stroke-width:5.00000048;stroke-linecap:butt;stroke-linejoin:miter;stroke-miterlimit:4;stroke-dasharray:none;stroke-dashoffset:0;stroke-opacity:1;color-rendering:auto;image-rendering:auto;shape-rendering:auto;text-rendering:auto;enable-background:accumulate" /><path
     inkscape:connector-curvature="0"
     id="line18"
     d="m 82.058148,140.27238 v 4.27983 h 15.088168 v -4.27983 z"
     style="color:#000000;font-style:normal;font-variant:normal;font-weight:normal;font-stretch:normal;font-size:medium;line-height:normal;font-family:sans-serif;font-variant-ligatures:normal;font-variant-position:normal;font-variant-caps:normal;font-variant-numeric:normal;font-variant-alternates:normal;font-feature-settings:normal;text-indent:0;text-align:start;text-decoration:none;text-decoration-line:none;text-decoration-style:solid;text-decoration-color:#000000;letter-spacing:normal;word-spacing:normal;text-transform:none;writing-mode:lr-tb;direction:ltr;text-orientation:mixed;dominant-baseline:auto;baseline-shift:baseline;text-anchor:start;white-space:normal;shape-padding:0;clip-rule:nonzero;display:inline;overflow:visible;visibility:visible;opacity:1;isolation:auto;mix-blend-mode:normal;color-interpolation:sRGB;color-interpolation-filters:linearRGB;solid-color:#000000;solid-opacity:1;vector-effect:none;fill:#000000;fill-opacity:1;fill-rule:nonzero;stroke:none;stroke-width:5.00000048;stroke-linecap:butt;stroke-linejoin:miter;stroke-miterlimit:4;stroke-dasharray:none;stroke-dashoffset:0;stroke-opacity:1;color-rendering:auto;image-rendering:auto;shape-rendering:auto;text-rendering:auto;enable-background:accumulate" /><path
     inkscape:connector-curvature="0"
     id="path20"
     d="m 67.100966,29.103607 c -2.745535,0 -4.864072,1.849786 -5.877035,3.917053 -1.497244,2.890574 -0.530977,6.345066 2.046921,8.27881 l 0.02795,0.02173 46.965628,33.013258 -0.12925,-0.09864 c 1.55541,1.272835 3.40106,1.627352 5.1557,1.900849 1.75467,0.273498 3.41161,0.336036 4.42046,0.336036 h 37.52568 v -4.279839 h -37.52568 c -0.79649,0 -2.29799,-0.06192 -3.70263,-0.280865 -1.40463,-0.218942 -2.71747,-0.725048 -2.96733,-0.929527 l -0.0629,-0.05182 -46.949887,-32.999883 -0.0017,-0.0016 c -1.023341,-0.768922 -1.342664,-1.97464 -0.796439,-3.017607 l 0.01572,-0.0301 0.01398,-0.0301 c 0.541267,-1.119617 0.99109,-1.467852 1.840833,-1.467852 h 56.222183 c 3.37156,0 5.82732,0.499853 6.29446,0.824203 l 42.88925,30.863308 c 1.02624,0.75709 1.49697,1.562109 1.55089,2.445859 0.0539,0.883752 -0.30434,2.081058 -1.81813,3.629503 l -0.0191,0.02006 -0.0174,0.01839 c -0.62801,0.674505 -1.4018,1.008104 -2.32985,1.008104 h -5.15747 v 4.279835 h 5.15747 c 2.15864,0 4.21373,-0.896566 5.64825,-2.427469 2.08126,-2.138516 3.13774,-4.499745 2.99877,-6.777522 -0.13951,-2.286321 -1.4728,-4.251421 -3.28347,-5.587192 l -0.0108,-0.0084 -42.96785,-30.918479 -0.0158,-0.01003 c -2.36986,-1.645382 -5.32777,-1.640026 -8.91955,-1.640026 z"
     style="color:#000000;font-style:normal;font-variant:normal;font-weight:normal;font-stretch:normal;font-size:medium;line-height:normal;font-family:sans-serif;font-variant-ligatures:normal;font-variant-position:normal;font-variant-caps:normal;font-variant-numeric:normal;font-variant-alternates:normal;font-feature-settings:normal;text-indent:0;text-align:start;text-decoration:none;text-decoration-line:none;text-decoration-style:solid;text-decoration-color:#000000;letter-spacing:normal;word-spacing:normal;text-transform:none;writing-mode:lr-tb;direction:ltr;text-orientation:mixed;dominant-baseline:auto;baseline-shift:baseline;text-anchor:start;white-space:normal;shape-padding:0;clip-rule:nonzero;display:inline;overflow:visible;visibility:visible;opacity:1;isolation:auto;mix-blend-mode:normal;color-interpolation:sRGB;color-interpolation-filters:linearRGB;solid-color:#000000;solid-opacity:1;vector-effect:none;fill:#000000;fill-opacity:1;fill-rule:nonzero;stroke:none;stroke-width:5.00000048;stroke-linecap:butt;stroke-linejoin:miter;stroke-miterlimit:4;stroke-dasharray:none;stroke-dashoffset:0;stroke-opacity:1;color-rendering:auto;image-rendering:auto;shape-rendering:auto;text-rendering:auto;enable-background:accumulate" /><path
     inkscape:connector-curvature="0"
     id="path22"
     d="m 124.50027,47.851297 -2.61278,3.472352 30.20778,20.829097 0.0351,0.02173 c 0.87444,0.556559 1.42196,1.072625 1.95084,2.419111 0.5289,1.346486 0.92044,3.575012 0.92044,7.12526 v 32.008493 h 4.47107 V 81.718849 c 0,-3.836325 -0.38174,-6.530978 -1.20682,-8.631559 -0.82511,-2.100583 -2.21231,-3.556357 -3.65897,-4.477111 z"
     style="color:#000000;font-style:normal;font-variant:normal;font-weight:normal;font-stretch:normal;font-size:medium;line-height:normal;font-family:sans-serif;font-variant-ligatures:normal;font-variant-position:normal;font-variant-caps:normal;font-variant-numeric:normal;font-variant-alternates:normal;font-feature-settings:normal;text-indent:0;text-align:start;text-decoration:none;text-decoration-line:none;text-decoration-style:solid;text-decoration-color:#000000;letter-spacing:normal;word-spacing:normal;text-transform:none;writing-mode:lr-tb;direction:ltr;text-orientation:mixed;dominant-baseline:auto;baseline-shift:baseline;text-anchor:start;white-space:normal;shape-padding:0;clip-rule:nonzero;display:inline;overflow:visible;visibility:visible;opacity:1;isolation:auto;mix-blend-mode:normal;color-interpolation:sRGB;color-interpolation-filters:linearRGB;solid-color:#000000;solid-opacity:1;vector-effect:none;fill:#000000;fill-opacity:1;fill-rule:nonzero;stroke:none;stroke-width:5.00000048;stroke-linecap:butt;stroke-linejoin:miter;stroke-miterlimit:4;stroke-dasharray:none;stroke-dashoffset:0;stroke-opacity:1;color-rendering:auto;image-rendering:auto;shape-rendering:auto;text-rendering:auto;enable-background:accumulate" /><path
     inkscape:connector-curvature="0"
     id="path24"
     d="m 83.287697,54.705724 -7.347604,21.410887 c -0.742981,2.127983 -0.0078,4.341209 1.323862,6.260933 1.331708,1.919724 3.327849,3.751475 5.856076,5.563788 5.056453,3.624623 12.284567,7.132532 20.661309,9.840278 l 0.008,0.0021 0.008,0.0021 c 8.37897,2.64549 16.35317,3.98561 22.66981,3.98561 3.15831,0 5.90411,-0.31966 8.17369,-1.0917 2.26958,-0.772045 4.24508,-2.118415 4.98806,-4.246402 l 0.002,-0.0052 7.35108,-21.30055 -4.24576,-1.342464 -7.34761,21.290517 c -0.15968,0.457315 -0.71385,1.049215 -2.24427,1.569826 -1.53047,0.520611 -3.85518,0.845945 -6.67693,0.845945 -5.64143,0 -13.26591,-1.245049 -21.26036,-3.768266 -7.997909,-2.586248 -14.888433,-5.971268 -19.405083,-9.208943 -2.259064,-1.619368 -3.914939,-3.211194 -4.811658,-4.503861 -0.89672,-1.292665 -0.968308,-2.080491 -0.808638,-2.53781 l 0.0017,-0.005 7.352842,-21.425932 z"
     style="color:#000000;font-style:normal;font-variant:normal;font-weight:normal;font-stretch:normal;font-size:medium;line-height:normal;font-family:sans-serif;font-variant-ligatures:normal;font-variant-position:normal;font-variant-caps:normal;font-variant-numeric:normal;font-variant-alternates:normal;font-feature-settings:normal;text-indent:0;text-align:start;text-decoration:none;text-decoration-line:none;text-decoration-style:solid;text-decoration-color:#000000;letter-spacing:normal;word-spacing:normal;text-transform:none;writing-mode:lr-tb;direction:ltr;text-orientation:mixed;dominant-baseline:auto;baseline-shift:baseline;text-anchor:start;white-space:normal;shape-padding:0;clip-rule:nonzero;display:inline;overflow:visible;visibility:visible;opacity:1;isolation:auto;mix-blend-mode:normal;color-interpolation:sRGB;color-interpolation-filters:linearRGB;solid-color:#000000;solid-opacity:1;vector-effect:none;fill:#000000;fill-opacity:1;fill-rule:nonzero;stroke:none;stroke-width:5.00000048;stroke-linecap:butt;stroke-linejoin:miter;stroke-miterlimit:4;stroke-dasharray:none;stroke-dashoffset:0;stroke-opacity:1;color-rendering:auto;image-rendering:auto;shape-rendering:auto;text-rendering:auto;enable-background:accumulate" /></g></svg>